EDA_long_form
…
Bootstrap estimates of test MSE for first linear model with formula valuation_b ~ revenue_b + funding_b + rounds + growth_years + age :

## # A tibble: 1,000 x 3
##    strap_mse average_mse est_se
##        <dbl>       <dbl>  <dbl>
##  1     23.7         27.9   44.8
##  2      4.89        27.9   44.8
##  3     18.7         27.9   44.8
##  4     12.3         27.9   44.8
##  5      9.41        27.9   44.8
##  6      2.81        27.9   44.8
##  7     13.4         27.9   44.8
##  8     19.5         27.9   44.8
##  9      9.51        27.9   44.8
## 10      9.51        27.9   44.8
## #  with 990 more rows

Bootstrap estimates of test MSE of second linear model with formula valuation_b ~ acquistions + funding_b + revenue_b :

## # A tibble: 1,000 x 3
##    strap_mse average_mse est_se
##        <dbl>       <dbl>  <dbl>
##  1     67.0         34.0   60.9
##  2      8.42        34.0   60.9
##  3      3.25        34.0   60.9
##  4      4.74        34.0   60.9
##  5     42.3         34.0   60.9
##  6     11.4         34.0   60.9
##  7     36.3         34.0   60.9
##  8     10.5         34.0   60.9
##  9     10.4         34.0   60.9
## 10    105.          34.0   60.9
## #  with 990 more rows

Bootstrap estimates of test MSE of third linear model with formula valuation_b ~ acquistions + funding_b : revenue_b :

## # A tibble: 1,000 x 3
##    strap_mse average_mse est_se
##        <dbl>       <dbl>  <dbl>
##  1     16.1        3176. 12331.
##  2     34.8        3176. 12331.
##  3     33.7        3176. 12331.
##  4     87.2        3176. 12331.
##  5  22176.         3176. 12331.
##  6     14.7        3176. 12331.
##  7     54.6        3176. 12331.
##  8     22.0        3176. 12331.
##  9     45.0        3176. 12331.
## 10      4.20       3176. 12331.
## #  with 990 more rows

Bootstrap estimates of test MSE of fourth linear model with formula valuation_b ~ acquistions + funding_b : revenue_b :

## # A tibble: 1,000 x 3
##    strap_mse average_mse est_se
##        <dbl>       <dbl>  <dbl>
##  1     81.8        6577. 33754.
##  2  96584.         6577. 33754.
##  3  18099.         6577. 33754.
##  4     37.6        6577. 33754.
##  5      2.65       6577. 33754.
##  6     22.7        6577. 33754.
##  7  15906.         6577. 33754.
##  8     86.5        6577. 33754.
##  9     23.0        6577. 33754.
## 10     10.1        6577. 33754.
## #  with 990 more rows

Bootstrap estimates of test MSE of fifth linear model with formula valuation_b ~ funding_b + revenue_b :

## # A tibble: 1,000 x 3
##    strap_mse average_mse est_se
##        <dbl>       <dbl>  <dbl>
##  1      6.89        42.2   81.4
##  2     15.5         42.2   81.4
##  3      2.23        42.2   81.4
##  4     15.4         42.2   81.4
##  5      9.19        42.2   81.4
##  6    121.          42.2   81.4
##  7    268.          42.2   81.4
##  8      3.66        42.2   81.4
##  9     26.0         42.2   81.4
## 10     18.3         42.2   81.4
## #  with 990 more rows
…
